Take A Sad Plot & Make It Better
…
## I can use `ggplot2`!

---

```r
set.seed(1000)
asdpop_base <- tibble::tibble(
  time1 = sample(1:100, 100, replace = F), 
  time2 = time1) %>% 
  tidyr::gather(x, y, time1:time2, factor_key = TRUE)  
asdpop_base
```

```
# A tibble: 200 x 2
   x         y
   <fct> <int>
 1 time1    33
 2 time1    76
 3 time1    12
 4 time1    68
 5 time1    50
 6 time1     7
 7 time1    70
 8 time1    55
 9 time1    20
10 time1    24
# … with 190 more rows
```
---

```r
asdpop <- asdpop_base %>% 
  mutate(services = as.factor(case_when(
    x == "time1" & y <= 30 ~ 1, 
    x == "time1" & y > 30 ~ 0, 
    x == "time2" & y <= 60 ~ 1, 
    TRUE ~ 0
    )))
asdpop
```

```
# A tibble: 200 x 3
   x         y services
   <fct> <int> <fct>   
 1 time1    33 0       
 2 time1    76 0       
 3 time1    12 1       
 4 time1    68 0       
 5 time1    50 0       
 6 time1     7 1       
 7 time1    70 0       
 8 time1    55 0       
 9 time1    20 1       
10 time1    24 1       
# … with 190 more rows
```
…
